<?xml version="1.0" encoding="UTF-8"?>
<session version="1.0">
<refactoring comment="Delete resource &apos;messagepropertyscopes&apos;" deleteContents="true" description="Delete resource &apos;messagepropertyscopes&apos;" element1="/messagepropertyscopes" flags="7" id="org.eclipse.ltk.core.refactoring.delete.resources" resources="1" stamp="1507018967746"/>
</session>